Évaluation paresseuse – Webinaire Arrow
…
Nous l’avions déjà vu dans le précédent chapitre précédent. Tant qu’on n’applique pas la fonction collect(), une pipeline en Apache Acero n’est rien de plus qu’un ExecPlan, donc rien n’est exécuté.

query %>%
  collect()

# A tibble: 40 x 5
   homeworld  count avg_height avg_mass avg_bmi
   <chr>      <int>      <dbl>    <dbl>   <dbl>
 1 Nal Hutta      1        175   1358     443. 
 2 Vulpter        1         94     45      50.9
 3 Kalee          1        216    159      34.1
 4 Bestine IV     1        180    110      34.0
 5 <NA>           3        153     82      32.6
 6 Malastare      1        112     40      31.9
 7 Trandosha      1        190    113      31.3
 8 Tatooine       8        169     85.4    29.3
 9 Sullust        1        160     68      26.6
10 Dathomir       1        175     80      26.1
# i 30 more rows
…
Il est à noter que l’on n’a pas chercher à optimiser le choix des types utilisés. Les col_character() utilisés pour les variables avec des modalités de type "00", "01", …, "99" pourraient aussi être encodés en uint8() de manière plus efficiente.

Le réel apport d’Apache Acero concerne la notion de stream. La paresse des ExecPlan permet de dépendre de plusieurs fichiers .parquet qui ne sont pas encore chargés en mémoire, et dont la somme des tailles dépasserait largement la mémoire s’ils étaient chargés. Il permet de les gérer comme une table à travers une abstraction bien commode.

emplacement_dataset <- "[emplacement du dataset]"

open_dataset(emplacement_dataset) %>%
  group_by(annee, mois) %>%
  summarise(FLT_PAI_MNT = sum(FLT_PAI_MNT)) %>%
  collect()

# A tibble: 84 x 3
# Groups:   annee [7]
   annee  mois  FLT_PAI_MNT
   <int> <int>        <dbl>
 1  2018     1 11449685653.
 2  2018     2 10650381772.
 3  2018     3 11552585153.
 4  2018     4 11526760892.
 5  2018     5 11030467263.
 6  2018     6 11660914760.
 7  2018     7 11588717855.
 8  2018     8  9129904544.
 9  2018     9 10119539795.
10  2018    10 12353701435.
# i 74 more rows
…
