Immutabilité – Webinaire Arrow
…
tbl %>%
  filter(! is.na(mass) & ! is.na(height)) %>%
  mutate(bmi = mass / (height/100)^2) %>%
  group_by(homeworld) %>%
  summarise(
    count = n(),
    avg_height = mean(height),
    avg_mass = mean(mass),
    avg_bmi = mean(bmi)
  ) %>%
  arrange(desc(avg_bmi))

# A tibble: 40 x 5
   homeworld  count avg_height avg_mass avg_bmi
   <chr>      <int>      <dbl>    <dbl>   <dbl>
 1 Nal Hutta      1        175   1358     443. 
 2 Vulpter        1         94     45      50.9
 3 Kalee          1        216    159      34.1
 4 Bestine IV     1        180    110      34.0
 5 <NA>           3        153     82      32.6
 6 Malastare      1        112     40      31.9
 7 Trandosha      1        190    113      31.3
 8 Tatooine       8        169     85.4    29.3
 9 Sullust        1        160     68      26.6
10 Dathomir       1        175     80      26.1
# i 30 more rows
…
ar_tbl %>%
  filter(! is.na(mass) & ! is.na(height)) %>%
  mutate(bmi = mass / (height/100)^2) %>%
  group_by(homeworld) %>%
  summarise(
    count = n(),
    avg_height = mean(height),
    avg_mass = mean(mass),
    avg_bmi = mean(bmi)
  ) %>%
  arrange(desc(avg_bmi)) %>%
  collect()

# A tibble: 40 x 5
   homeworld  count avg_height avg_mass avg_bmi
   <chr>      <int>      <dbl>    <dbl>   <dbl>
 1 Nal Hutta      1        175   1358     443. 
 2 Vulpter        1         94     45      50.9
 3 Kalee          1        216    159      34.1
 4 Bestine IV     1        180    110      34.0
 5 <NA>           3        153     82      32.6
 6 Malastare      1        112     40      31.9
 7 Trandosha      1        190    113      31.3
 8 Tatooine       8        169     85.4    29.3
 9 Sullust        1        160     68      26.6
10 Dathomir       1        175     80      26.1
# i 30 more rows
…
